{
    "Version": "2012-10-17",
    "Id": "example-ID",
    "Statement":
    [
        {
            "Sid": "Example SNS topic policy",
            "Effect": "Allow",
            "Principal":
            {
                "Service": "s3.amazonaws.com"
            },
            "Action":
            [
                "SNS:Publish"
            ],
            "Resource": "SNS-topic-ARN",
            "Condition":
            {
                "ArnLike":
                {
                    "aws:SourceArn": "arn:aws:s3:*:*:bucket-name"
                },
                "StringEquals":
                {
                    "aws:SourceAccount": "bucket-owner-account-id"
                }
            }
        }
    ]
}

/** https://docs.aws.amazon.com/AmazonS3/latest/userguide/grant-destinations-permissions-to-s3.html **/

/** {
    "Version": "2012-10-17",
    "Id": "example-ID",
    "Statement":
    [
        {
            "Sid": "example-statement-ID",
            "Effect": "Allow",
            "Principal":
            {
                "Service": "s3.amazonaws.com"
            },
            "Action":
            [
                "SQS:SendMessage"
            ],
            "Resource": "arn:aws:sqs:<Region of queue>:<account-id>:<queue-name>",
            "Condition":
            {
                "ArnLike":
                {
                    "aws:SourceArn": "arn:aws:s3:*:*:<change to queue name>"
                },
                "StringEquals":
                {
                    "aws:SourceAccount": "<change to account id of owner>"
                }
            }
        }
    ]
} */